{
  "appId": "com.udemycource.ionicangular",
  "appName": "udemy-ionic-cource",
  "bundledWebRuntime": false,
  "npmClient": "npm",
  "webDir": "www",
  "plugins": {
    "SplashScreen": {
      "launchShowDuration": 0
    }
  },
  "cordova": {}
}